{
  "title": "Change Command_R Key",
  "rules": [
    {
      "description": "Post backslash if Command_R is pressed alone.",
      "manipulators": [
        {
          "type": "basic",
          "from": {
            "key_code": "right_command",
            "modifiers": {
              "optional": [
                "any"
              ]
            }
          },
          "to": [
            {
              "key_code": "right_command"
            }
          ],
          "to_if_alone": [
            {
              "key_code": "backslash"
            }
          ]
        }
      ]
    }
  ]
}
